user.dabattul.ntup_bkg_24022023.364700.Pythia8EvtGen_A14NNPDF23LO_jetjet_JZ0WithSW.e7142_s3681_r13145_p5511_TREE/user.dabattuluser.dabattul.32511583._000026.outputhh4b.root,
user.dabattul.ntup_bkg_24022023.364700.Pythia8EvtGen_A14NNPDF23LO_jetjet_JZ0WithSW.e7142_s3681_r13145_p5511_TREE/user.dabattuluser.dabattul.32511583._000027.outputhh4b.root,
user.dabattul.ntup_bkg_24022023.364700.Pythia8EvtGen_A14NNPDF23LO_jetjet_JZ0WithSW.e7142_s3681_r13145_p5511_TREE/user.dabattuluser.dabattul.32511583._000028.outputhh4b.root,
user.dabattul.ntup_bkg_24022023.364700.Pythia8EvtGen_A14NNPDF23LO_jetjet_JZ0WithSW.e7142_s3681_r13145_p5511_TREE/user.dabattuluser.dabattul.32511583._000021.outputhh4b.root,
user.dabattul.ntup_bkg_24022023.364700.Pythia8EvtGen_A14NNPDF23LO_jetjet_JZ0WithSW.e7142_s3681_r13145_p5511_TREE/user.dabattuluser.dabattul.32511583._000022.outputhh4b.root,
user.dabattul.ntup_bkg_24022023.364700.Pythia8EvtGen_A14NNPDF23LO_jetjet_JZ0WithSW.e7142_s3681_r13145_p5511_TREE/user.dabattuluser.dabattul.32511583._000023.outputhh4b.root,
user.dabattul.ntup_bkg_24022023.364700.Pythia8EvtGen_A14NNPDF23LO_jetjet_JZ0WithSW.e7142_s3681_r13145_p5511_TREE/user.dabattuluser.dabattul.32511583._000024.outputhh4b.root,
user.dabattul.ntup_bkg_24022023.364700.Pythia8EvtGen_A14NNPDF23LO_jetjet_JZ0WithSW.e7142_s3681_r13145_p5511_TREE/user.dabattuluser.dabattul.32511583._000025.outputhh4b.root,
user.dabattul.ntup_bkg_24022023.364700.Pythia8EvtGen_A14NNPDF23LO_jetjet_JZ0WithSW.e7142_s3681_r13145_p5511_TREE/user.dabattuluser.dabattul.32511583._000020.outputhh4b.root,
user.dabattul.ntup_bkg_24022023.364700.Pythia8EvtGen_A14NNPDF23LO_jetjet_JZ0WithSW.e7142_s3681_r13145_p5511_TREE/user.dabattuluser.dabattul.32511583._000017.outputhh4b.root,
user.dabattul.ntup_bkg_24022023.364700.Pythia8EvtGen_A14NNPDF23LO_jetjet_JZ0WithSW.e7142_s3681_r13145_p5511_TREE/user.dabattuluser.dabattul.32511583._000016.outputhh4b.root,
user.dabattul.ntup_bkg_24022023.364700.Pythia8EvtGen_A14NNPDF23LO_jetjet_JZ0WithSW.e7142_s3681_r13145_p5511_TREE/user.dabattuluser.dabattul.32511583._000015.outputhh4b.root,
user.dabattul.ntup_bkg_24022023.364700.Pythia8EvtGen_A14NNPDF23LO_jetjet_JZ0WithSW.e7142_s3681_r13145_p5511_TREE/user.dabattuluser.dabattul.32511583._000018.outputhh4b.root,
user.dabattul.ntup_bkg_24022023.364700.Pythia8EvtGen_A14NNPDF23LO_jetjet_JZ0WithSW.e7142_s3681_r13145_p5511_TREE/user.dabattuluser.dabattul.32511583._000019.outputhh4b.root,
user.dabattul.ntup_bkg_24022023.364700.Pythia8EvtGen_A14NNPDF23LO_jetjet_JZ0WithSW.e7142_s3681_r13145_p5511_TREE/user.dabattuluser.dabattul.32511583._000014.outputhh4b.root,
user.dabattul.ntup_bkg_24022023.364700.Pythia8EvtGen_A14NNPDF23LO_jetjet_JZ0WithSW.e7142_s3681_r13145_p5511_TREE/user.dabattuluser.dabattul.32511583._000013.outputhh4b.root,
user.dabattul.ntup_bkg_24022023.364700.Pythia8EvtGen_A14NNPDF23LO_jetjet_JZ0WithSW.e7142_s3681_r13145_p5511_TREE/user.dabattuluser.dabattul.32511583._000012.outputhh4b.root,
user.dabattul.ntup_bkg_24022023.364700.Pythia8EvtGen_A14NNPDF23LO_jetjet_JZ0WithSW.e7142_s3681_r13145_p5511_TREE/user.dabattuluser.dabattul.32511583._000003.outputhh4b.root,
user.dabattul.ntup_bkg_24022023.364700.Pythia8EvtGen_A14NNPDF23LO_jetjet_JZ0WithSW.e7142_s3681_r13145_p5511_TREE/user.dabattuluser.dabattul.32511583._000004.outputhh4b.root,
user.dabattul.ntup_bkg_24022023.364700.Pythia8EvtGen_A14NNPDF23LO_jetjet_JZ0WithSW.e7142_s3681_r13145_p5511_TREE/user.dabattuluser.dabattul.32511583._000005.outputhh4b.root,
user.dabattul.ntup_bkg_24022023.364700.Pythia8EvtGen_A14NNPDF23LO_jetjet_JZ0WithSW.e7142_s3681_r13145_p5511_TREE/user.dabattuluser.dabattul.32511583._000006.outputhh4b.root,
user.dabattul.ntup_bkg_24022023.364700.Pythia8EvtGen_A14NNPDF23LO_jetjet_JZ0WithSW.e7142_s3681_r13145_p5511_TREE/user.dabattuluser.dabattul.32511583._000007.outputhh4b.root,
user.dabattul.ntup_bkg_24022023.364700.Pythia8EvtGen_A14NNPDF23LO_jetjet_JZ0WithSW.e7142_s3681_r13145_p5511_TREE/user.dabattuluser.dabattul.32511583._000008.outputhh4b.root,
user.dabattul.ntup_bkg_24022023.364700.Pythia8EvtGen_A14NNPDF23LO_jetjet_JZ0WithSW.e7142_s3681_r13145_p5511_TREE/user.dabattuluser.dabattul.32511583._000009.outputhh4b.root,
user.dabattul.ntup_bkg_24022023.364700.Pythia8EvtGen_A14NNPDF23LO_jetjet_JZ0WithSW.e7142_s3681_r13145_p5511_TREE/user.dabattuluser.dabattul.32511583._000010.outputhh4b.root,
user.dabattul.ntup_bkg_24022023.364700.Pythia8EvtGen_A14NNPDF23LO_jetjet_JZ0WithSW.e7142_s3681_r13145_p5511_TREE/user.dabattuluser.dabattul.32511583._000011.outputhh4b.root,
user.dabattul.ntup_bkg_24022023.364700.Pythia8EvtGen_A14NNPDF23LO_jetjet_JZ0WithSW.e7142_s3681_r13145_p5511_TREE/user.dabattuluser.dabattul.32511583._000002.outputhh4b.root,
user.dabattul.ntup_bkg_24022023.364700.Pythia8EvtGen_A14NNPDF23LO_jetjet_JZ0WithSW.e7142_s3681_r13145_p5511_TREE/user.dabattuluser.dabattul.32511583._000001.outputhh4b.root
