user.dabattul.ntup_bkg_resub_24022023.364708.Pythia8EvtGen_A14NNPDF23LO_jetjet_JZ8WithSW.e7142_s3681_r13144_p5511_TREE/user.dabattuluser.dabattul.32638612._000001.outputhh4b.root,
user.dabattul.ntup_bkg_resub_24022023.364708.Pythia8EvtGen_A14NNPDF23LO_jetjet_JZ8WithSW.e7142_s3681_r13144_p5511_TREE/user.dabattuluser.dabattul.32638612._000002.outputhh4b.root,
user.dabattul.ntup_bkg_resub_24022023.364708.Pythia8EvtGen_A14NNPDF23LO_jetjet_JZ8WithSW.e7142_s3681_r13144_p5511_TREE/user.dabattuluser.dabattul.32638612._000003.outputhh4b.root
