user.dabattul.ntup_bkg_24022023.364703.Pythia8EvtGen_A14NNPDF23LO_jetjet_JZ3WithSW.e7142_s3681_r13144_p5511_TREE/user.dabattuluser.dabattul.32511591._000034.outputhh4b.root,
user.dabattul.ntup_bkg_24022023.364703.Pythia8EvtGen_A14NNPDF23LO_jetjet_JZ3WithSW.e7142_s3681_r13144_p5511_TREE/user.dabattuluser.dabattul.32511591._000033.outputhh4b.root,
user.dabattul.ntup_bkg_24022023.364703.Pythia8EvtGen_A14NNPDF23LO_jetjet_JZ3WithSW.e7142_s3681_r13144_p5511_TREE/user.dabattuluser.dabattul.32511591._000032.outputhh4b.root,
user.dabattul.ntup_bkg_24022023.364703.Pythia8EvtGen_A14NNPDF23LO_jetjet_JZ3WithSW.e7142_s3681_r13144_p5511_TREE/user.dabattuluser.dabattul.32511591._000031.outputhh4b.root,
user.dabattul.ntup_bkg_24022023.364703.Pythia8EvtGen_A14NNPDF23LO_jetjet_JZ3WithSW.e7142_s3681_r13144_p5511_TREE/user.dabattuluser.dabattul.32511591._000029.outputhh4b.root,
user.dabattul.ntup_bkg_24022023.364703.Pythia8EvtGen_A14NNPDF23LO_jetjet_JZ3WithSW.e7142_s3681_r13144_p5511_TREE/user.dabattuluser.dabattul.32511591._000028.outputhh4b.root,
user.dabattul.ntup_bkg_24022023.364703.Pythia8EvtGen_A14NNPDF23LO_jetjet_JZ3WithSW.e7142_s3681_r13144_p5511_TREE/user.dabattuluser.dabattul.32511591._000023.outputhh4b.root,
user.dabattul.ntup_bkg_24022023.364703.Pythia8EvtGen_A14NNPDF23LO_jetjet_JZ3WithSW.e7142_s3681_r13144_p5511_TREE/user.dabattuluser.dabattul.32511591._000021.outputhh4b.root,
user.dabattul.ntup_bkg_24022023.364703.Pythia8EvtGen_A14NNPDF23LO_jetjet_JZ3WithSW.e7142_s3681_r13144_p5511_TREE/user.dabattuluser.dabattul.32511591._000020.outputhh4b.root,
user.dabattul.ntup_bkg_24022023.364703.Pythia8EvtGen_A14NNPDF23LO_jetjet_JZ3WithSW.e7142_s3681_r13144_p5511_TREE/user.dabattuluser.dabattul.32511591._000024.outputhh4b.root,
user.dabattul.ntup_bkg_24022023.364703.Pythia8EvtGen_A14NNPDF23LO_jetjet_JZ3WithSW.e7142_s3681_r13144_p5511_TREE/user.dabattuluser.dabattul.32511591._000030.outputhh4b.root,
user.dabattul.ntup_bkg_24022023.364703.Pythia8EvtGen_A14NNPDF23LO_jetjet_JZ3WithSW.e7142_s3681_r13144_p5511_TREE/user.dabattuluser.dabattul.32511591._000019.outputhh4b.root,
user.dabattul.ntup_bkg_24022023.364703.Pythia8EvtGen_A14NNPDF23LO_jetjet_JZ3WithSW.e7142_s3681_r13144_p5511_TREE/user.dabattuluser.dabattul.32511591._000018.outputhh4b.root,
user.dabattul.ntup_bkg_24022023.364703.Pythia8EvtGen_A14NNPDF23LO_jetjet_JZ3WithSW.e7142_s3681_r13144_p5511_TREE/user.dabattuluser.dabattul.32511591._000016.outputhh4b.root,
user.dabattul.ntup_bkg_24022023.364703.Pythia8EvtGen_A14NNPDF23LO_jetjet_JZ3WithSW.e7142_s3681_r13144_p5511_TREE/user.dabattuluser.dabattul.32511591._000017.outputhh4b.root,
user.dabattul.ntup_bkg_24022023.364703.Pythia8EvtGen_A14NNPDF23LO_jetjet_JZ3WithSW.e7142_s3681_r13144_p5511_TREE/user.dabattuluser.dabattul.32511591._000015.outputhh4b.root,
user.dabattul.ntup_bkg_24022023.364703.Pythia8EvtGen_A14NNPDF23LO_jetjet_JZ3WithSW.e7142_s3681_r13144_p5511_TREE/user.dabattuluser.dabattul.32511591._000014.outputhh4b.root,
user.dabattul.ntup_bkg_24022023.364703.Pythia8EvtGen_A14NNPDF23LO_jetjet_JZ3WithSW.e7142_s3681_r13144_p5511_TREE/user.dabattuluser.dabattul.32511591._000013.outputhh4b.root,
user.dabattul.ntup_bkg_24022023.364703.Pythia8EvtGen_A14NNPDF23LO_jetjet_JZ3WithSW.e7142_s3681_r13144_p5511_TREE/user.dabattuluser.dabattul.32511591._000012.outputhh4b.root,
user.dabattul.ntup_bkg_24022023.364703.Pythia8EvtGen_A14NNPDF23LO_jetjet_JZ3WithSW.e7142_s3681_r13144_p5511_TREE/user.dabattuluser.dabattul.32511591._000025.outputhh4b.root,
user.dabattul.ntup_bkg_24022023.364703.Pythia8EvtGen_A14NNPDF23LO_jetjet_JZ3WithSW.e7142_s3681_r13144_p5511_TREE/user.dabattuluser.dabattul.32511591._000026.outputhh4b.root,
user.dabattul.ntup_bkg_24022023.364703.Pythia8EvtGen_A14NNPDF23LO_jetjet_JZ3WithSW.e7142_s3681_r13144_p5511_TREE/user.dabattuluser.dabattul.32511591._000027.outputhh4b.root,
user.dabattul.ntup_bkg_24022023.364703.Pythia8EvtGen_A14NNPDF23LO_jetjet_JZ3WithSW.e7142_s3681_r13144_p5511_TREE/user.dabattuluser.dabattul.32511591._000008.outputhh4b.root,
user.dabattul.ntup_bkg_24022023.364703.Pythia8EvtGen_A14NNPDF23LO_jetjet_JZ3WithSW.e7142_s3681_r13144_p5511_TREE/user.dabattuluser.dabattul.32511591._000005.outputhh4b.root,
user.dabattul.ntup_bkg_24022023.364703.Pythia8EvtGen_A14NNPDF23LO_jetjet_JZ3WithSW.e7142_s3681_r13144_p5511_TREE/user.dabattuluser.dabattul.32511591._000007.outputhh4b.root,
user.dabattul.ntup_bkg_24022023.364703.Pythia8EvtGen_A14NNPDF23LO_jetjet_JZ3WithSW.e7142_s3681_r13144_p5511_TREE/user.dabattuluser.dabattul.32511591._000004.outputhh4b.root,
user.dabattul.ntup_bkg_24022023.364703.Pythia8EvtGen_A14NNPDF23LO_jetjet_JZ3WithSW.e7142_s3681_r13144_p5511_TREE/user.dabattuluser.dabattul.32511591._000003.outputhh4b.root,
user.dabattul.ntup_bkg_24022023.364703.Pythia8EvtGen_A14NNPDF23LO_jetjet_JZ3WithSW.e7142_s3681_r13144_p5511_TREE/user.dabattuluser.dabattul.32511591._000002.outputhh4b.root,
user.dabattul.ntup_bkg_24022023.364703.Pythia8EvtGen_A14NNPDF23LO_jetjet_JZ3WithSW.e7142_s3681_r13144_p5511_TREE/user.dabattuluser.dabattul.32511591._000001.outputhh4b.root
